[{"id":1,"first_name":"Valentina","last_name":"Rudolf","email":"vrudolf0@technorati.com","password":"p5ODHoyk"},
{"id":2,"first_name":"Nickolai","last_name":"Kobpa","email":"nkobpa1@flickr.com","password":"N9g4iyjl3"},
{"id":3,"first_name":"Rania","last_name":"Gerok","email":"rgerok2@tinypic.com","password":"fIGQjk5QQ"},
{"id":4,"first_name":"Gary","last_name":"Heighway","email":"gheighway3@wired.com","password":"VVFU0EqCMx"},
{"id":5,"first_name":"Erik","last_name":"Runnett","email":"erunnett4@rakuten.co.jp","password":"QsVCeIdtHaqX"},
{"id":6,"first_name":"Bradley","last_name":"Cussins","email":"bcussins5@gravatar.com","password":"6mHzXEf27xd"},
{"id":7,"first_name":"Giusto","last_name":"Greguol","email":"ggreguol6@trellian.com","password":"iUqPlTQ"},
{"id":8,"first_name":"Goldi","last_name":"Leftley","email":"gleftley7@fc2.com","password":"WdrJey0"},
{"id":9,"first_name":"Lenette","last_name":"Henrique","email":"lhenrique8@smugmug.com","password":"I3dfy9sySUg"},
{"id":10,"first_name":"Kelli","last_name":"Mew","email":"kmew9@kickstarter.com","password":"XH1MYVC7"},
{"id":11,"first_name":"Chrysa","last_name":"Milillo","email":"cmililloa@usgs.gov","password":"0aNs2i"},
{"id":12,"first_name":"Codie","last_name":"Woodberry","email":"cwoodberryb@imdb.com","password":"0CSuQraP"},
{"id":13,"first_name":"Lola","last_name":"Crab","email":"lcrabc@simplemachines.org","password":"WqBPQwmyIwV9"},
{"id":14,"first_name":"Niles","last_name":"Langsbury","email":"nlangsburyd@i2i.jp","password":"dFku6Aav"},
{"id":15,"first_name":"Lionel","last_name":"Antonov","email":"lantonove@mozilla.org","password":"ORKSJR9I"},
{"id":16,"first_name":"Rosaline","last_name":"Taggerty","email":"rtaggertyf@eepurl.com","password":"xE3y8C"},
{"id":17,"first_name":"Inga","last_name":"Roelvink","email":"iroelvinkg@wiley.com","password":"d3HYWJg"},
{"id":18,"first_name":"Grant","last_name":"Robertucci","email":"grobertuccih@ibm.com","password":"R7G9Rstl"},
{"id":19,"first_name":"Jerry","last_name":"Frome","email":"jfromei@weibo.com","password":"22u7goqf"},
{"id":20,"first_name":"Sella","last_name":"McCart","email":"smccartj@jugem.jp","password":"vXJpTEQ2mu"},
{"id":21,"first_name":"Haskel","last_name":"Billie","email":"hbilliek@cnet.com","password":"ZjkxD8YZw6qA"},
{"id":22,"first_name":"Dot","last_name":"Madre","email":"dmadrel@cam.ac.uk","password":"WEHKiw5ZJf"},
{"id":23,"first_name":"Konstance","last_name":"Daniely","email":"kdanielym@vkontakte.ru","password":"oZ52MzwiyZU"},
{"id":24,"first_name":"Paola","last_name":"Fuentez","email":"pfuentezn@de.vu","password":"6pk66m"},
{"id":25,"first_name":"Major","last_name":"Farncomb","email":"mfarncombo@desdev.cn","password":"5wTsqolig"},
{"id":26,"first_name":"Rudolf","last_name":"Colhoun","email":"rcolhounp@about.me","password":"pFyROHjSh"},
{"id":27,"first_name":"Neile","last_name":"Kibbee","email":"nkibbeeq@prlog.org","password":"xSKGJ0pA"},
{"id":28,"first_name":"Zackariah","last_name":"MacDearmont","email":"zmacdearmontr@google.it","password":"X4qAZTtxej"},
{"id":29,"first_name":"Lancelot","last_name":"Zeal","email":"lzeals@ox.ac.uk","password":"vWvyTLcMQw"},
{"id":30,"first_name":"Gavrielle","last_name":"Braid","email":"gbraidt@oakley.com","password":"DcBCjmaJ"},
{"id":31,"first_name":"Livvyy","last_name":"Gapper","email":"lgapperu@instagram.com","password":"aSy87ge1VR8"},
{"id":32,"first_name":"Kendricks","last_name":"Perigeaux","email":"kperigeauxv@goodreads.com","password":"Qwf0Cm"},
{"id":33,"first_name":"Sophey","last_name":"Soitoux","email":"ssoitouxw@auda.org.au","password":"sbGofIC"},
{"id":34,"first_name":"Lanie","last_name":"Gladden","email":"lgladdenx@i2i.jp","password":"ZbFrh4KLIzw"},
{"id":35,"first_name":"Karlis","last_name":"Oosthout de Vree","email":"koosthoutdevreey@amazon.co.jp","password":"GP7VW2"},
{"id":36,"first_name":"Dolli","last_name":"Thoresby","email":"dthoresbyz@gravatar.com","password":"RnXLBeC6DV"},
{"id":37,"first_name":"Elwyn","last_name":"Shadwick","email":"eshadwick10@bloglovin.com","password":"qGBLP0zsMj"},
{"id":38,"first_name":"Arron","last_name":"Bolgar","email":"abolgar11@mtv.com","password":"vaBKUVYEU"},
{"id":39,"first_name":"Lucias","last_name":"Grzegorczyk","email":"lgrzegorczyk12@livejournal.com","password":"Lnm6ndw5KP"},
{"id":40,"first_name":"Halie","last_name":"Joiris","email":"hjoiris13@example.com","password":"DRCC2pg8"},
{"id":41,"first_name":"Dan","last_name":"Gilbody","email":"dgilbody14@skype.com","password":"eTlLJPms9fon"},
{"id":42,"first_name":"Netti","last_name":"Levison","email":"nlevison15@tinyurl.com","password":"1RMqnPYd8"},
{"id":43,"first_name":"Ivett","last_name":"Grimster","email":"igrimster16@google.it","password":"Z7fVMNbQ"},
{"id":44,"first_name":"Lina","last_name":"Cummins","email":"lcummins17@ehow.com","password":"xJUnnYXP"},
{"id":45,"first_name":"Mikey","last_name":"Nyssens","email":"mnyssens18@nhs.uk","password":"fGF0olS"},
{"id":46,"first_name":"Carmelina","last_name":"Steptoe","email":"csteptoe19@live.com","password":"dBPAFW"},
{"id":47,"first_name":"Niki","last_name":"Lenard","email":"nlenard1a@walmart.com","password":"vOGAJdre"},
{"id":48,"first_name":"Issi","last_name":"Foucard","email":"ifoucard1b@cdc.gov","password":"y62GJpBWPHF"},
{"id":49,"first_name":"Cullin","last_name":"Visick","email":"cvisick1c@army.mil","password":"j3vEqYHdGJ3"},
{"id":50,"first_name":"Matti","last_name":"Crimpe","email":"mcrimpe1d@woothemes.com","password":"r1342dhrm2"},
{"id":51,"first_name":"Kingsley","last_name":"Djurdjevic","email":"kdjurdjevic1e@google.de","password":"M8inXGn"},
{"id":52,"first_name":"Tannie","last_name":"Gorden","email":"tgorden1f@zimbio.com","password":"6rDd3W8zK"},
{"id":53,"first_name":"Jerrilyn","last_name":"Sowerbutts","email":"jsowerbutts1g@bravesites.com","password":"iYoJTDdNw"},
{"id":54,"first_name":"Hermie","last_name":"Dahle","email":"hdahle1h@ovh.net","password":"aTe33rTJWe"},
{"id":55,"first_name":"Romain","last_name":"Jantet","email":"rjantet1i@wufoo.com","password":"CccNU6p"},
{"id":56,"first_name":"Lorinda","last_name":"McCaffery","email":"lmccaffery1j@tinypic.com","password":"cM3VeAnWMZrZ"},
{"id":57,"first_name":"Nelson","last_name":"Vitall","email":"nvitall1k@cnn.com","password":"4XBuhW"},
{"id":58,"first_name":"Elita","last_name":"Plews","email":"eplews1l@unicef.org","password":"T0C89AsOWtD"},
{"id":59,"first_name":"Noelani","last_name":"Meffen","email":"nmeffen1m@yahoo.co.jp","password":"ouujThCuqgk"},
{"id":60,"first_name":"Reinald","last_name":"Spiers","email":"rspiers1n@harvard.edu","password":"Nbtk1jw"},
{"id":61,"first_name":"Ferd","last_name":"Musker","email":"fmusker1o@wordpress.com","password":"2MtTbrcu"},
{"id":62,"first_name":"Berke","last_name":"Sima","email":"bsima1p@edublogs.org","password":"ihtoqz"},
{"id":63,"first_name":"Steffie","last_name":"Neligan","email":"sneligan1q@photobucket.com","password":"RpGQDQshZ0"},
{"id":64,"first_name":"Nananne","last_name":"McOnie","email":"nmconie1r@ucoz.ru","password":"02UQq8XR"},
{"id":65,"first_name":"Eartha","last_name":"Sheehan","email":"esheehan1s@hibu.com","password":"stngZ0e6XgPN"},
{"id":66,"first_name":"Wallace","last_name":"Burdoun","email":"wburdoun1t@umich.edu","password":"CUi5eTomrd"},
{"id":67,"first_name":"Cherri","last_name":"MacKettrick","email":"cmackettrick1u@lycos.com","password":"1G0DpBg"},
{"id":68,"first_name":"Meris","last_name":"Marriot","email":"mmarriot1v@ning.com","password":"6TqIjbMGnYg"},
{"id":69,"first_name":"Patric","last_name":"Kenwyn","email":"pkenwyn1w@posterous.com","password":"yGIM4uK"},
{"id":70,"first_name":"Marie-ann","last_name":"Roswarn","email":"mroswarn1x@51.la","password":"zh7Zgjhmyw"},
{"id":71,"first_name":"Nadeen","last_name":"Mainwaring","email":"nmainwaring1y@etsy.com","password":"MYVWmS"},
{"id":72,"first_name":"Jayne","last_name":"Treeby","email":"jtreeby1z@stanford.edu","password":"W0Dk7gY50EO0"},
{"id":73,"first_name":"Penn","last_name":"Jovey","email":"pjovey20@bloglines.com","password":"LWvbIJDP"},
{"id":74,"first_name":"Bobbee","last_name":"Ciccone","email":"bciccone21@amazon.co.uk","password":"s1koGK"},
{"id":75,"first_name":"Flossi","last_name":"Bartocci","email":"fbartocci22@skyrock.com","password":"s29f2Cz"},
{"id":76,"first_name":"Kattie","last_name":"Fero","email":"kfero23@army.mil","password":"IoVVLgkIT"},
{"id":77,"first_name":"Bea","last_name":"Clemmen","email":"bclemmen24@fc2.com","password":"nntgnwvj"},
{"id":78,"first_name":"Roderick","last_name":"Vittery","email":"rvittery25@privacy.gov.au","password":"mWzXAUJ"},
{"id":79,"first_name":"Candra","last_name":"Simakov","email":"csimakov26@dion.ne.jp","password":"Qazhy0I9"},
{"id":80,"first_name":"Suzanne","last_name":"Tourle","email":"stourle27@jiathis.com","password":"5pmSoQpCjm"},
{"id":81,"first_name":"Lorin","last_name":"MacGruer","email":"lmacgruer28@nih.gov","password":"zyXJvs6sp6t"},
{"id":82,"first_name":"Gill","last_name":"Backler","email":"gbackler29@bloomberg.com","password":"kEkjkWLC"},
{"id":83,"first_name":"Aila","last_name":"Raoul","email":"araoul2a@theatlantic.com","password":"N96TgGg"},
{"id":84,"first_name":"Nona","last_name":"Monument","email":"nmonument2b@bravesites.com","password":"bvtV7pkODO"},
{"id":85,"first_name":"Dahlia","last_name":"Lincey","email":"dlincey2c@xinhuanet.com","password":"HjnT7V6hmwcZ"},
{"id":86,"first_name":"Nowell","last_name":"Lamburne","email":"nlamburne2d@alibaba.com","password":"of3nfw"},
{"id":87,"first_name":"Hillie","last_name":"Dener","email":"hdener2e@stanford.edu","password":"e94WefP0yo"},
{"id":88,"first_name":"Eugenio","last_name":"Roseaman","email":"eroseaman2f@canalblog.com","password":"rBXggaKO"},
{"id":89,"first_name":"Kennie","last_name":"Ielden","email":"kielden2g@opensource.org","password":"PQanRM"},
{"id":90,"first_name":"Isahella","last_name":"Withrington","email":"iwithrington2h@odnoklassniki.ru","password":"b3HWjdVStLx6"},
{"id":91,"first_name":"Brose","last_name":"Boadby","email":"bboadby2i@yelp.com","password":"YajdrRtd5P"},
{"id":92,"first_name":"Elenore","last_name":"Silcox","email":"esilcox2j@nps.gov","password":"JiG7pGJW"},
{"id":93,"first_name":"Micheal","last_name":"Ferrara","email":"mferrara2k@mail.ru","password":"LwahM6tXvo"},
{"id":94,"first_name":"Allan","last_name":"Tulloch","email":"atulloch2l@fda.gov","password":"RFXRWNYnbVly"},
{"id":95,"first_name":"Wilhelm","last_name":"Verrechia","email":"wverrechia2m@geocities.com","password":"PuZbCimklHdX"},
{"id":96,"first_name":"Lynn","last_name":"Testo","email":"ltesto2n@multiply.com","password":"cLMkTwu"},
{"id":97,"first_name":"Orton","last_name":"Bendan","email":"obendan2o@howstuffworks.com","password":"eiSsXsT8442S"},
{"id":98,"first_name":"Dorotea","last_name":"Wiles","email":"dwiles2p@drupal.org","password":"lYylOw"},
{"id":99,"first_name":"Arvin","last_name":"Thebeau","email":"athebeau2q@prlog.org","password":"jIcviGGwiL"},
{"id":100,"first_name":"Bessie","last_name":"Chudleigh","email":"bchudleigh2r@discovery.com","password":"FadjVrs0zm"}]