[{"idBbva":"COL15190667","first_name":"Livy","last_name":"Winship","email":"lwinship0@illinois.edu","password":"SWiudv2HBx"},
{"idBbva":"COL32899513","first_name":"Archy","last_name":"Pautard","email":"apautard1@prweb.com","password":"WFWv1FQgOslO"},
{"idBbva":"COL41859298","first_name":"Rick","last_name":"Maydway","email":"rmaydway2@ocn.ne.jp","password":"1vkCNXDg"},
{"idBbva":"COL91242293","first_name":"Zedekiah","last_name":"Winton","email":"zwinton3@mozilla.com","password":"rWcjqp8j"},
{"idBbva":"COL46301642","first_name":"Zelig","last_name":"Impy","email":"zimpy4@ehow.com","password":"HN2tsXr"},
{"idBbva":"COL65180416","first_name":"Olivie","last_name":"Whitebrook","email":"owhitebrook5@webeden.co.uk","password":"TAR8mp"},
{"idBbva":"COL43434056","first_name":"Theodor","last_name":"Liger","email":"tliger6@unicef.org","password":"OoEIpfjmztK"},
{"idBbva":"COL48642492","first_name":"Talbot","last_name":"Calyton","email":"tcalyton7@bloglines.com","password":"TCWzeUn"},
{"idBbva":"COL08695101","first_name":"Cornela","last_name":"Gayforth","email":"cgayforth8@biglobe.ne.jp","password":"bgyiKTc"},
{"idBbva":"COL22392308","first_name":"Bethanne","last_name":"Bastiman","email":"bbastiman9@deviantart.com","password":"5foWrB5"},
{"idBbva":"COL59036147","first_name":"Hanna","last_name":"Legge","email":"hleggea@shutterfly.com","password":"FnpLID1Nsh"},
{"idBbva":"COL53659912","first_name":"Sarine","last_name":"Worpole","email":"sworpoleb@spiegel.de","password":"jt7Jnl1"},
{"idBbva":"COL39489437","first_name":"Tracie","last_name":"Kubu","email":"tkubuc@chron.com","password":"nXsJDASo"},
{"idBbva":"COL68519673","first_name":"Price","last_name":"Kirwin","email":"pkirwind@yandex.ru","password":"yJpbAiFwN"},
{"idBbva":"COL46842434","first_name":"Elsie","last_name":"Dyers","email":"edyerse@cmu.edu","password":"OttQ81z0BRsj"},
{"idBbva":"COL31497480","first_name":"Annalee","last_name":"Clemerson","email":"aclemersonf@phpbb.com","password":"erQiGpMiRBCu"},
{"idBbva":"COL66992327","first_name":"Zane","last_name":"Addionizio","email":"zaddioniziog@who.int","password":"LlxWdTVr"},
{"idBbva":"COL32071946","first_name":"Samantha","last_name":"Keighley","email":"skeighleyh@time.com","password":"yVrEiW"},
{"idBbva":"COL87709067","first_name":"Yank","last_name":"Steagall","email":"ysteagalli@jugem.jp","password":"lFcSCju6JGw"},
{"idBbva":"COL82309630","first_name":"Tallie","last_name":"Pellingar","email":"tpellingarj@godaddy.com","password":"41oRlubBsQ"},
{"idBbva":"COL72168853","first_name":"Lotte","last_name":"Snoxall","email":"lsnoxallk@usatoday.com","password":"3uuy6jZxy"},
{"idBbva":"COL16319512","first_name":"Sharleen","last_name":"Wyllcock","email":"swyllcockl@google.nl","password":"fpvtTlOsg"},
{"idBbva":"COL75403184","first_name":"Sandy","last_name":"Boakes","email":"sboakesm@friendfeed.com","password":"q3yAFLqz3Liw"},
{"idBbva":"COL58114792","first_name":"Enrica","last_name":"Idale","email":"eidalen@hatena.ne.jp","password":"JA5sfWOteb"},
{"idBbva":"COL02192065","first_name":"Maribeth","last_name":"Killiam","email":"mkilliamo@webs.com","password":"hkCc1DFYp"},
{"idBbva":"COL63030917","first_name":"Katina","last_name":"Hibling","email":"khiblingp@t-online.de","password":"UT4wD4"},
{"idBbva":"COL44513423","first_name":"Lawry","last_name":"Hacksby","email":"lhacksbyq@mashable.com","password":"RNmAWmymKink"},
{"idBbva":"COL23347468","first_name":"Elston","last_name":"Pellett","email":"epellettr@cbslocal.com","password":"b8d3tZ"},
{"idBbva":"COL98420363","first_name":"Candi","last_name":"Hunsworth","email":"chunsworths@sun.com","password":"BkFI91m"},
{"idBbva":"COL21415514","first_name":"Erin","last_name":"Tamplin","email":"etamplint@timesonline.co.uk","password":"tpuz8pWo2p"},
{"idBbva":"COL44386190","first_name":"Laure","last_name":"Goodrich","email":"lgoodrichu@twitpic.com","password":"YmWmVMR"},
{"idBbva":"COL60124465","first_name":"Cyndy","last_name":"Flohard","email":"cflohardv@trellian.com","password":"4cIl6e"},
{"idBbva":"COL55145821","first_name":"Clarice","last_name":"McAlester","email":"cmcalesterw@arstechnica.com","password":"DYayrjpHQC9M"},
{"idBbva":"COL89518585","first_name":"Talia","last_name":"Gewer","email":"tgewerx@paginegialle.it","password":"as6NRNEs"},
{"idBbva":"COL65636058","first_name":"Walliw","last_name":"Springham","email":"wspringhamy@diigo.com","password":"OaRSlp8P21Nx"},
{"idBbva":"COL29998892","first_name":"Shaylyn","last_name":"Sambiedge","email":"ssambiedgez@pagesperso-orange.fr","password":"jyUH0MwaKJ"},
{"idBbva":"COL31782223","first_name":"Jeana","last_name":"Conkling","email":"jconkling10@icio.us","password":"KRaZD0Sf"},
{"idBbva":"COL28216117","first_name":"Penni","last_name":"Castillou","email":"pcastillou11@weibo.com","password":"zkFmie"},
{"idBbva":"COL77880583","first_name":"Casandra","last_name":"Lardez","email":"clardez12@360.cn","password":"njU7eMV"},
{"idBbva":"COL60619174","first_name":"Pamelina","last_name":"Sharply","email":"psharply13@google.ru","password":"CCTzxtkBi"},
{"idBbva":"COL90282515","first_name":"Drusie","last_name":"Cocklie","email":"dcocklie14@pinterest.com","password":"BsiiO8EZ"},
{"idBbva":"COL86145973","first_name":"Bruis","last_name":"Wilmut","email":"bwilmut15@oracle.com","password":"YAgctSqe"},
{"idBbva":"COL80650476","first_name":"Darwin","last_name":"Dyster","email":"ddyster16@stanford.edu","password":"AmZ7Jb"},
{"idBbva":"COL26884983","first_name":"Deeyn","last_name":"Swarbrigg","email":"dswarbrigg17@harvard.edu","password":"UmHEQmrj"},
{"idBbva":"COL67140167","first_name":"Brnaba","last_name":"Tschierse","email":"btschierse18@taobao.com","password":"Tyyb6z0Jy"},
{"idBbva":"COL33010898","first_name":"Latia","last_name":"Laurenceau","email":"llaurenceau19@mediafire.com","password":"dJMvCg"},
{"idBbva":"COL73841550","first_name":"Barnebas","last_name":"Seamer","email":"bseamer1a@marketwatch.com","password":"kAI9Sx"},
{"idBbva":"COL08904981","first_name":"Bertrando","last_name":"Murrow","email":"bmurrow1b@amazon.de","password":"hrcMATt"},
{"idBbva":"COL01563718","first_name":"Barbe","last_name":"Stanger","email":"bstanger1c@phpbb.com","password":"BDcZeWtO"},
{"idBbva":"COL60673601","first_name":"Mariya","last_name":"Styles","email":"mstyles1d@gravatar.com","password":"An5IjjlRxkU"},
{"idBbva":"COL25596421","first_name":"Aubree","last_name":"Andrzejewski","email":"aandrzejewski1e@tamu.edu","password":"9Rgr9s"},
{"idBbva":"COL14820272","first_name":"Camala","last_name":"Rockwell","email":"crockwell1f@msu.edu","password":"imx9zvUq"},
{"idBbva":"COL52795554","first_name":"Ranna","last_name":"Zecchini","email":"rzecchini1g@ow.ly","password":"j4iSYJ6"},
{"idBbva":"COL25949394","first_name":"Onofredo","last_name":"Mebes","email":"omebes1h@mit.edu","password":"RMzaqv8"},
{"idBbva":"COL53274029","first_name":"Jean","last_name":"Grossman","email":"jgrossman1i@oracle.com","password":"0gF4h9"},
{"idBbva":"COL34897439","first_name":"Lynnett","last_name":"Alfonsini","email":"lalfonsini1j@about.me","password":"OTi1rxt"},
{"idBbva":"COL85499203","first_name":"Ruy","last_name":"Boerderman","email":"rboerderman1k@youtu.be","password":"gIpQx0m"},
{"idBbva":"COL66079432","first_name":"Chad","last_name":"Carratt","email":"ccarratt1l@ft.com","password":"LrNU7JRnS8"},
{"idBbva":"COL81565449","first_name":"Ekaterina","last_name":"Maffetti","email":"emaffetti1m@lycos.com","password":"uL3m4qTPhZz"},
{"idBbva":"COL21361657","first_name":"Gipsy","last_name":"Bern","email":"gbern1n@alibaba.com","password":"4WARkC"},
{"idBbva":"COL75208796","first_name":"Tomasine","last_name":"Startin","email":"tstartin1o@cnbc.com","password":"aqj5t3s"},
{"idBbva":"COL95813307","first_name":"Tamra","last_name":"Cattel","email":"tcattel1p@epa.gov","password":"d9SVdlI4SGj"},
{"idBbva":"COL40629878","first_name":"My","last_name":"Drakers","email":"mdrakers1q@slideshare.net","password":"SkH5dEVwdi"},
{"idBbva":"COL61706644","first_name":"Zuzana","last_name":"Laughlin","email":"zlaughlin1r@ebay.co.uk","password":"BBapRdz"},
{"idBbva":"COL03187902","first_name":"Giorgio","last_name":"Mostin","email":"gmostin1s@hostgator.com","password":"BcmpXyLU"},
{"idBbva":"COL75690512","first_name":"Weider","last_name":"Josum","email":"wjosum1t@squarespace.com","password":"DomhlnC9vQDG"},
{"idBbva":"COL22063197","first_name":"Husain","last_name":"Baldrick","email":"hbaldrick1u@squidoo.com","password":"rk4YDi"},
{"idBbva":"COL18352299","first_name":"Randie","last_name":"Swinford","email":"rswinford1v@etsy.com","password":"p6EMJmMz1vT"},
{"idBbva":"COL70286655","first_name":"Shelia","last_name":"Reschke","email":"sreschke1w@imgur.com","password":"Da7xwg"},
{"idBbva":"COL11108251","first_name":"Zola","last_name":"Proback","email":"zproback1x@google.com","password":"X9sdzcVJ72Qj"},
{"idBbva":"COL15768559","first_name":"Dalis","last_name":"Skaif","email":"dskaif1y@thetimes.co.uk","password":"83jgNpISi"},
{"idBbva":"COL20628274","first_name":"Ezri","last_name":"Marchand","email":"emarchand1z@bbb.org","password":"C6KCnVE5Gvw"},
{"idBbva":"COL13094316","first_name":"Johnny","last_name":"Boothman","email":"jboothman20@sitemeter.com","password":"gkoFDU3u3"},
{"idBbva":"COL80559284","first_name":"Lonni","last_name":"Coombes","email":"lcoombes21@soup.io","password":"U98kE6Bc"},
{"idBbva":"COL53779824","first_name":"Matthus","last_name":"Livard","email":"mlivard22@dailymotion.com","password":"RXvsrww9"},
{"idBbva":"COL46995546","first_name":"Erma","last_name":"Tasch","email":"etasch23@dell.com","password":"gAt4VwqKO17A"},
{"idBbva":"COL32427352","first_name":"Nefen","last_name":"Di Biagio","email":"ndibiagio24@squidoo.com","password":"LhWnOalj"},
{"idBbva":"COL13890054","first_name":"Romonda","last_name":"McBeith","email":"rmcbeith25@histats.com","password":"n0B1u67nzOz"},
{"idBbva":"COL55631533","first_name":"Lurline","last_name":"Khalid","email":"lkhalid26@lycos.com","password":"U7El1P6op"},
{"idBbva":"COL83493451","first_name":"Randee","last_name":"Kirkland","email":"rkirkland27@biblegateway.com","password":"PDMWbTcEBKUs"},
{"idBbva":"COL73291110","first_name":"Terra","last_name":"Tripony","email":"ttripony28@squarespace.com","password":"PxakQ2OMB"},
{"idBbva":"COL96337324","first_name":"Elva","last_name":"Burhill","email":"eburhill29@so-net.ne.jp","password":"zrEIysKaCL"},
{"idBbva":"COL31008043","first_name":"Rebbecca","last_name":"Cawthorne","email":"rcawthorne2a@surveymonkey.com","password":"ENHoPLl6nR"},
{"idBbva":"COL42429078","first_name":"Hermine","last_name":"Perkins","email":"hperkins2b@lulu.com","password":"87uzEB4Lf7M5"},
{"idBbva":"COL14284927","first_name":"Berke","last_name":"Pattemore","email":"bpattemore2c@washington.edu","password":"d9trmD7"},
{"idBbva":"COL98987084","first_name":"Simon","last_name":"Babar","email":"sbabar2d@si.edu","password":"S2kKMc5H9F5i"},
{"idBbva":"COL77653514","first_name":"Clim","last_name":"Domelaw","email":"cdomelaw2e@xing.com","password":"HMLIN2"},
{"idBbva":"COL31765847","first_name":"Zelma","last_name":"Degli Antoni","email":"zdegliantoni2f@netvibes.com","password":"Xz2r2LGb"},
{"idBbva":"COL22316379","first_name":"Kathrine","last_name":"Ronaghan","email":"kronaghan2g@yolasite.com","password":"6xGKwaA6"},
{"idBbva":"COL75649136","first_name":"Arri","last_name":"Dwane","email":"adwane2h@google.cn","password":"BTjpvZleouot"},
{"idBbva":"COL01030704","first_name":"Marlee","last_name":"Blase","email":"mblase2i@ca.gov","password":"TsIPI2Ko"},
{"idBbva":"COL97236400","first_name":"Maurie","last_name":"Gouthier","email":"mgouthier2j@indiatimes.com","password":"iwkQThbA"},
{"idBbva":"COL35243311","first_name":"Noll","last_name":"Feathers","email":"nfeathers2k@lycos.com","password":"uQK8Br5heq"},
{"idBbva":"COL97637835","first_name":"Ruprecht","last_name":"Camplin","email":"rcamplin2l@shop-pro.jp","password":"AMfubfBmk"},
{"idBbva":"COL02630713","first_name":"Skylar","last_name":"Tevelov","email":"stevelov2m@reference.com","password":"pvEMNrFrRgx4"},
{"idBbva":"COL87480861","first_name":"Petr","last_name":"Bailiss","email":"pbailiss2n@vkontakte.ru","password":"2AkIMwoz3UsX"},
{"idBbva":"COL64545002","first_name":"Brew","last_name":"Lacase","email":"blacase2o@hostgator.com","password":"Abf2mfze0yQ"},
{"idBbva":"COL06675268","first_name":"Rakel","last_name":"Caisley","email":"rcaisley2p@sogou.com","password":"O36MarnyAO"},
{"idBbva":"COL64293154","first_name":"Hamlen","last_name":"Don","email":"hdon2q@yellowpages.com","password":"0ewnWRf0"},
{"idBbva":"COL90507392","first_name":"Kimberly","last_name":"Havick","email":"khavick2r@nih.gov","password":"LB34aO"}]